^F:\DATES\COCOSPROJECT\MYGAME\PROJ.WIN32\DEBUG.WIN32\APPDELEGATE.OBJ|F:\DATES\COCOSPROJECT\MYGAME\PROJ.WIN32\DEBUG.WIN32\BULLET.OBJ|F:\DATES\COCOSPROJECT\MYGAME\PROJ.WIN32\DEBUG.WIN32\COCOS_TEST.OBJ|F:\DATES\COCOSPROJECT\MYGAME\PROJ.WIN32\DEBUG.WIN32\GAME.RES|F:\DATES\COCOSPROJECT\MYGAME\PROJ.WIN32\DEBUG.WIN32\HELLOWORLDSCENE.OBJ|F:\DATES\COCOSPROJECT\MYGAME\PROJ.WIN32\DEBUG.WIN32\KAWAZTAN.OBJ|F:\DATES\COCOSPROJECT\MYGAME\PROJ.WIN32\DEBUG.WIN32\LIBBOX2D.LIB|F:\DATES\COCOSPROJECT\MYGAME\PROJ.WIN32\DEBUG.WIN32\LIBCOCOS2D.LIB|F:\DATES\COCOSPROJECT\MYGAME\PROJ.WIN32\DEBUG.WIN32\LIBSPINE.LIB|F:\DATES\COCOSPROJECT\MYGAME\PROJ.WIN32\DEBUG.WIN32\MAIN.OBJ|F:\DATES\COCOSPROJECT\MYGAME\PROJ.WIN32\DEBUG.WIN32\STAGE.OBJ
C:\WINDOWS\GLOBALIZATION\SORTING\SORTDEFAULT.NLS
C:\PROGRAM FILES (X86)\MICROSOFT SDKS\WINDOWS\V7.1A\LIB\OPENGL32.LIB
F:\DATES\COCOSPROJECT\MYGAME\PROJ.WIN32\DEBUG.WIN32\GLEW32.LIB
F:\DATES\COCOSPROJECT\MYGAME\PROJ.WIN32\DEBUG.WIN32\LIBZLIB.LIB
F:\DATES\COCOSPROJECT\MYGAME\PROJ.WIN32\DEBUG.WIN32\LIBPNG.LIB
F:\DATES\COCOSPROJECT\MYGAME\PROJ.WIN32\DEBUG.WIN32\LIBJPEG.LIB
F:\DATES\COCOSPROJECT\MYGAME\PROJ.WIN32\DEBUG.WIN32\LIBTIFF.LIB
F:\DATES\COCOSPROJECT\MYGAME\PROJ.WIN32\DEBUG.WIN32\LIBWEBP.LIB
F:\DATES\COCOSPROJECT\MYGAME\PROJ.WIN32\DEBUG.WIN32\LIBICONV.LIB
F:\DATES\COCOSPROJECT\MYGAME\PROJ.WIN32\DEBUG.WIN32\GLFW3.LIB
F:\DATES\COCOSPROJECT\MYGAME\PROJ.WIN32\DEBUG.WIN32\FREETYPE250.LIB
C:\PROGRAM FILES (X86)\MICROSOFT SDKS\WINDOWS\V7.1A\LIB\WINMM.LIB
C:\PROGRAM FILES (X86)\MICROSOFT SDKS\WINDOWS\V7.1A\LIB\WS2_32.LIB
F:\DATES\COCOSPROJECT\MYGAME\PROJ.WIN32\DEBUG.WIN32\LIBCHIPMUNK.LIB
F:\DATES\COCOSPROJECT\MYGAME\PROJ.WIN32\DEBUG.WIN32\LIBBOX2D.LIB
F:\DATES\COCOSPROJECT\MYGAME\PROJ.WIN32\DEBUG.WIN32\LIBSPINE.LIB
C:\PROGRAM FILES (X86)\MICROSOFT SDKS\WINDOWS\V7.1A\LIB\KERNEL32.LIB
C:\PROGRAM FILES (X86)\MICROSOFT SDKS\WINDOWS\V7.1A\LIB\USER32.LIB
C:\PROGRAM FILES (X86)\MICROSOFT SDKS\WINDOWS\V7.1A\LIB\GDI32.LIB
C:\PROGRAM FILES (X86)\MICROSOFT SDKS\WINDOWS\V7.1A\LIB\WINSPOOL.LIB
C:\PROGRAM FILES (X86)\MICROSOFT SDKS\WINDOWS\V7.1A\LIB\COMDLG32.LIB
C:\PROGRAM FILES (X86)\MICROSOFT SDKS\WINDOWS\V7.1A\LIB\ADVAPI32.LIB
C:\PROGRAM FILES (X86)\MICROSOFT SDKS\WINDOWS\V7.1A\LIB\SHELL32.LIB
C:\PROGRAM FILES (X86)\MICROSOFT SDKS\WINDOWS\V7.1A\LIB\OLE32.LIB
C:\PROGRAM FILES (X86)\MICROSOFT SDKS\WINDOWS\V7.1A\LIB\OLEAUT32.LIB
C:\PROGRAM FILES (X86)\MICROSOFT SDKS\WINDOWS\V7.1A\LIB\UUID.LIB
C:\PROGRAM FILES (X86)\MICROSOFT SDKS\WINDOWS\V7.1A\LIB\ODBC32.LIB
C:\PROGRAM FILES (X86)\MICROSOFT SDKS\WINDOWS\V7.1A\LIB\ODBCCP32.LIB
F:\DATES\COCOSPROJECT\MYGAME\PROJ.WIN32\DEBUG.WIN32\GAME.RES
F:\DATES\COCOSPROJECT\MYGAME\PROJ.WIN32\DEBUG.WIN32\APPDELEGATE.OBJ
F:\DATES\COCOSPROJECT\MYGAME\PROJ.WIN32\DEBUG.WIN32\BULLET.OBJ
F:\DATES\COCOSPROJECT\MYGAME\PROJ.WIN32\DEBUG.WIN32\COCOS_TEST.OBJ
F:\DATES\COCOSPROJECT\MYGAME\PROJ.WIN32\DEBUG.WIN32\HELLOWORLDSCENE.OBJ
F:\DATES\COCOSPROJECT\MYGAME\PROJ.WIN32\DEBUG.WIN32\KAWAZTAN.OBJ
F:\DATES\COCOSPROJECT\MYGAME\PROJ.WIN32\DEBUG.WIN32\STAGE.OBJ
F:\DATES\COCOSPROJECT\MYGAME\PROJ.WIN32\DEBUG.WIN32\MAIN.OBJ
F:\DATES\COCOSPROJECT\MYGAME\PROJ.WIN32\DEBUG.WIN32\LIBCOCOS2D.LIB
C:\WINDOWS\SYSTEM32\TZRES.DLL
C:\PROGRAM FILES (X86)\MICROSOFT VISUAL STUDIO 12.0\VC\LIB\MSVCPRTD.LIB
C:\PROGRAM FILES (X86)\MICROSOFT VISUAL STUDIO 12.0\VC\LIB\MSVCRTD.LIB
C:\PROGRAM FILES (X86)\MICROSOFT VISUAL STUDIO 12.0\VC\LIB\OLDNAMES.LIB
